{
  "project_info": {
    "project_number": "304837557158",
    "firebase_url": "https://utmlifestyle-67387-default-rtdb.firebaseio.com",
    "project_id": "utmlifestyle-67387",
    "storage_bucket": "utmlifestyle-67387.appspot.com"
  },
  "client": [
    {
      "client_info": {
        "mobilesdk_app_id": "1:304837557158:android:b101904d43c01310c82d67",
        "android_client_info": {
          "package_name": "com.example.utmlifestyle"
        }
      },
      "oauth_client": [
        {
          "client_id": "304837557158-e0eu4j682tomnbpg7303pqbrt8l6vmhl.apps.googleusercontent.com",
          "client_type": 3
        }
      ],
      "api_key": [
        {
          "current_key": "AIzaSyC5qBFzpX7jiGjlN8EBuHNMJQP2e3ADlLI"
        }
      ],
      "services": {
        "appinvite_service": {
          "other_platform_oauth_client": [
            {
              "client_id": "304837557158-e0eu4j682tomnbpg7303pqbrt8l6vmhl.apps.googleusercontent.com",
              "client_type": 3
            }
          ]
        }
      }
    }
  ],
  "configuration_version": "1"
}